{
  "title": "Etherpad",
  "favicon": "favicon.ico",
  "ip": "0.0.0.0",
  "port" : 9001,

  "dbType" : "mysql",
  "dbSettings" : {
    "user"    : "CHANGEME",
    "host"    : "CHANGEME",
    "port"    : "CHANGEME",
    "password": "CHANGEME",
    "database": "etherpad",
    "charset" : "utf8mb4"
  },

  "defaultPadText" : "Welcome to Etherpad!\n\nThis pad text is synchronized as you type, so that everyone viewing this page sees the same text. This allows you to collaborate seamlessly on documents!\n\nGet involved with Etherpad at http:\/\/etherpad.org\n",

  "padOptions": {
    "noColors": false,
    "showControls": true,
    "showChat": true,
    "showLineNumbers": true,
    "useMonospaceFont": false,
    "userName": false,
    "userColor": false,
    "rtl": false,
    "alwaysShowChat": false,
    "chatAndUsers": false,
    "lang": "en-gb"
  },

  "users": {
    "oauth2": {
      "authorizationURL": "https://oauth.web.cern.ch/OAuth/Authorize",
      "tokenURL": "https://oauth.web.cern.ch/OAuth/Token",
      "clientID": "CHANGEME",
      "clientSecret": "CHANGEME",
      "publicURL": "CHANGEME",
      "userinfoURL": "https://oauthresource.web.cern.ch/api/User",
      "usernameKey": "username",
      "useridKey": "id",
      "accessGroup": "CHANGEME",
      "groupsURL": "https://oauthresource.web.cern.ch/api/Groups",
    }
  },

  "suppressErrorsInPadText" : false,
  "requireSession" : false,
  "editOnly" : false,
  "sessionNoPassword" : false,
  "minify" : false,
  "maxAge" : 21600,
  "abiword" : null,
  "soffice" : null,
  "tidyHtml" : null,
  "allowUnknownFileEnds" : true,
  "requireAuthentication" : true,
  "requireAuthorization" : false,
  "trustProxy" : true,
  "disableIPlogging" : false,

  "socketTransportProtocols" : ["xhr-polling", "jsonp-polling", "htmlfile"],
  "loadTest": false,

  "loglevel": "INFO",

  "logconfig" :
    {
      "appenders": [
        {
          "type": "console"
        }
      ]
    }
}
